EESchema Schematic File Version 4
EELAYER 30 0
EELAYER END
$Descr A4 11693 8268
encoding utf-8
Sheet 1 1
Title ""
Date ""
Rev ""
Comp ""
Comment1 ""
Comment2 ""
Comment3 ""
Comment4 ""
$EndDescr
$Comp
L 3843_Preamp_PSU-rescue:UC3843_DIP8-Regulator_Controller U1
U 1 1 5CEFB931
P 4750 3150
F 0 "U1" H 4650 3750 50  0000 C CNN
F 1 "UC3845_DIP8" H 4450 3650 50  0000 C CNN
F 2 "Package_SO:SO-8_3.9x4.9mm_P1.27mm" H 4750 2650 50  0001 C CNN
F 3 "http://www.ti.com/lit/ds/symlink/uc3842.pdf" H 4750 3150 50  0001 C CNN
	1    4750 3150
	1    0    0    -1  
$EndComp
Wire Wire Line
	4750 2750 4750 2050
$Comp
L Device:C_Small C8
U 1 1 5CF04953
P 5000 2250
F 0 "C8" H 5092 2296 50  0000 L CNN
F 1 "100n" H 5092 2205 50  0000 L CNN
F 2 "Capacitor_SMD:C_1206_3216Metric_Pad1.42x1.75mm_HandSolder" H 5000 2250 50  0001 C CNN
F 3 "~" H 5000 2250 50  0001 C CNN
	1    5000 2250
	1    0    0    -1  
$EndComp
Wire Wire Line
	5000 2150 5000 2050
Wire Wire Line
	5000 2050 4750 2050
Connection ~ 4750 2050
Wire Wire Line
	4750 2050 4750 1300
$Comp
L power:GND #PWR0104
U 1 1 5CF053F1
P 5000 2350
F 0 "#PWR0104" H 5000 2100 50  0001 C CNN
F 1 "GND" H 5005 2177 50  0000 C CNN
F 2 "" H 5000 2350 50  0001 C CNN
F 3 "" H 5000 2350 50  0001 C CNN
	1    5000 2350
	1    0    0    -1  
$EndComp
$Comp
L power:GND #PWR0105
U 1 1 5CF06050
P 4750 3550
F 0 "#PWR0105" H 4750 3300 50  0001 C CNN
F 1 "GND" H 4755 3377 50  0000 C CNN
F 2 "" H 4750 3550 50  0001 C CNN
F 3 "" H 4750 3550 50  0001 C CNN
	1    4750 3550
	1    0    0    -1  
$EndComp
$Comp
L Device:D_Schottky D2
U 1 1 5CF0660A
P 5400 2250
F 0 "D2" V 5400 2329 50  0000 L CNN
F 1 "D_Schottky" V 5445 2329 50  0001 L CNN
F 2 "Diode_SMD:D_SMA" H 5400 2250 50  0001 C CNN
F 3 "~" H 5400 2250 50  0001 C CNN
	1    5400 2250
	0    1    1    0   
$EndComp
Wire Wire Line
	5400 2100 5400 2050
Wire Wire Line
	5400 2050 5000 2050
Connection ~ 5000 2050
Wire Wire Line
	5400 2400 5400 2950
Wire Wire Line
	5400 2950 5250 2950
$Comp
L Device:D_Schottky D3
U 1 1 5CF07978
P 5400 3650
F 0 "D3" V 5400 3729 50  0000 L CNN
F 1 "D_Schottky" V 5445 3729 50  0001 L CNN
F 2 "Diode_SMD:D_SMA" H 5400 3650 50  0001 C CNN
F 3 "~" H 5400 3650 50  0001 C CNN
	1    5400 3650
	0    1    1    0   
$EndComp
$Comp
L power:GND #PWR0106
U 1 1 5CF08239
P 5400 3800
F 0 "#PWR0106" H 5400 3550 50  0001 C CNN
F 1 "GND" H 5405 3627 50  0000 C CNN
F 2 "" H 5400 3800 50  0001 C CNN
F 3 "" H 5400 3800 50  0001 C CNN
	1    5400 3800
	1    0    0    -1  
$EndComp
Wire Wire Line
	5400 3500 5400 2950
Connection ~ 5400 2950
$Comp
L Device:R R5
U 1 1 5CF08ABB
P 6250 2950
F 0 "R5" V 6043 2950 50  0000 C CNN
F 1 "10" V 6134 2950 50  0000 C CNN
F 2 "Resistor_SMD:R_1206_3216Metric_Pad1.42x1.75mm_HandSolder" V 6180 2950 50  0001 C CNN
F 3 "~" H 6250 2950 50  0001 C CNN
	1    6250 2950
	0    1    1    0   
$EndComp
Wire Wire Line
	6100 2950 5400 2950
$Comp
L Device:R R8
U 1 1 5CF09394
P 6800 3200
F 0 "R8" H 6730 3154 50  0000 R CNN
F 1 "10k" H 6730 3245 50  0000 R CNN
F 2 "Resistor_SMD:R_1206_3216Metric_Pad1.42x1.75mm_HandSolder" V 6730 3200 50  0001 C CNN
F 3 "~" H 6800 3200 50  0001 C CNN
	1    6800 3200
	-1   0    0    1   
$EndComp
Wire Wire Line
	6400 2950 6800 2950
Wire Wire Line
	6800 2950 6800 3050
$Comp
L power:GND #PWR0107
U 1 1 5CF0ABF9
P 6800 3350
F 0 "#PWR0107" H 6800 3100 50  0001 C CNN
F 1 "GND" H 6805 3177 50  0000 C CNN
F 2 "" H 6800 3350 50  0001 C CNN
F 3 "" H 6800 3350 50  0001 C CNN
	1    6800 3350
	1    0    0    -1  
$EndComp
Connection ~ 6800 2950
$Comp
L Device:R R6
U 1 1 5CF0F202
P 6250 3350
F 0 "R6" V 6457 3350 50  0000 C CNN
F 1 "1k" V 6366 3350 50  0000 C CNN
F 2 "Resistor_SMD:R_1206_3216Metric_Pad1.42x1.75mm_HandSolder" V 6180 3350 50  0001 C CNN
F 3 "~" H 6250 3350 50  0001 C CNN
	1    6250 3350
	0    -1   -1   0   
$EndComp
Wire Wire Line
	6400 3350 6600 3350
$Comp
L Device:C_Small C9
U 1 1 5CF11480
P 5900 3650
F 0 "C9" H 5992 3696 50  0000 L CNN
F 1 "470p" H 5992 3605 50  0000 L CNN
F 2 "Capacitor_THT:C_Disc_D4.3mm_W1.9mm_P5.00mm" H 5900 3650 50  0001 C CNN
F 3 "~" H 5900 3650 50  0001 C CNN
	1    5900 3650
	1    0    0    -1  
$EndComp
Wire Wire Line
	5900 3550 5900 3350
Wire Wire Line
	5900 3350 6100 3350
Wire Wire Line
	5900 3350 5250 3350
Connection ~ 5900 3350
$Comp
L power:GND #PWR0109
U 1 1 5CF12D14
P 5900 3750
F 0 "#PWR0109" H 5900 3500 50  0001 C CNN
F 1 "GND" H 5905 3577 50  0000 C CNN
F 2 "" H 5900 3750 50  0001 C CNN
F 3 "" H 5900 3750 50  0001 C CNN
	1    5900 3750
	1    0    0    -1  
$EndComp
$Comp
L Device:C_Small C6
U 1 1 5CF13810
P 4050 3600
F 0 "C6" H 4142 3646 50  0000 L CNN
F 1 "3.3n" H 4142 3555 50  0000 L CNN
F 2 "Capacitor_THT:C_Disc_D4.3mm_W1.9mm_P5.00mm" H 4050 3600 50  0001 C CNN
F 3 "~" H 4050 3600 50  0001 C CNN
	1    4050 3600
	1    0    0    -1  
$EndComp
Wire Wire Line
	4050 3500 4050 3350
Wire Wire Line
	4050 3350 4250 3350
$Comp
L power:GND #PWR0110
U 1 1 5CF14539
P 4050 3700
F 0 "#PWR0110" H 4050 3450 50  0001 C CNN
F 1 "GND" H 4055 3527 50  0000 C CNN
F 2 "" H 4050 3700 50  0001 C CNN
F 3 "" H 4050 3700 50  0001 C CNN
	1    4050 3700
	1    0    0    -1  
$EndComp
$Comp
L Device:R R2
U 1 1 5CF149F1
P 3750 3350
F 0 "R2" V 3550 3350 50  0000 C CNN
F 1 "10k" V 3650 3350 50  0000 C CNN
F 2 "Resistor_SMD:R_1206_3216Metric_Pad1.42x1.75mm_HandSolder" V 3680 3350 50  0001 C CNN
F 3 "~" H 3750 3350 50  0001 C CNN
	1    3750 3350
	0    -1   -1   0   
$EndComp
Wire Wire Line
	3900 3350 4050 3350
Connection ~ 4050 3350
Wire Wire Line
	4250 3250 3450 3250
Wire Wire Line
	3450 3250 3450 3350
Wire Wire Line
	3450 3350 3600 3350
$Comp
L Device:C_Small C4
U 1 1 5CF17E7B
P 3450 3700
F 0 "C4" H 3542 3746 50  0000 L CNN
F 1 "1u" H 3542 3655 50  0000 L CNN
F 2 "Capacitor_SMD:C_1206_3216Metric" H 3450 3700 50  0001 C CNN
F 3 "~" H 3450 3700 50  0001 C CNN
	1    3450 3700
	1    0    0    -1  
$EndComp
$Comp
L power:GND #PWR0111
U 1 1 5CF18558
P 3450 3800
F 0 "#PWR0111" H 3450 3550 50  0001 C CNN
F 1 "GND" H 3455 3627 50  0000 C CNN
F 2 "" H 3450 3800 50  0001 C CNN
F 3 "" H 3450 3800 50  0001 C CNN
	1    3450 3800
	1    0    0    -1  
$EndComp
Wire Wire Line
	3450 3600 3450 3350
Connection ~ 3450 3350
Wire Wire Line
	3250 4950 3250 3250
Wire Wire Line
	3250 3250 3450 3250
Connection ~ 3450 3250
$Comp
L Device:R R9
U 1 1 5CF1D729
P 6900 5400
F 0 "R9" H 6970 5446 50  0000 L CNN
F 1 "1k" H 6970 5355 50  0000 L CNN
F 2 "Resistor_SMD:R_1206_3216Metric_Pad1.42x1.75mm_HandSolder" V 6830 5400 50  0001 C CNN
F 3 "~" H 6900 5400 50  0001 C CNN
	1    6900 5400
	1    0    0    -1  
$EndComp
Wire Wire Line
	6900 5250 6900 5150
$Comp
L power:GND #PWR0112
U 1 1 5CF1E9CE
P 6900 5550
F 0 "#PWR0112" H 6900 5300 50  0001 C CNN
F 1 "GND" H 6905 5377 50  0000 C CNN
F 2 "" H 6900 5550 50  0001 C CNN
F 3 "" H 6900 5550 50  0001 C CNN
	1    6900 5550
	1    0    0    -1  
$EndComp
$Comp
L Device:R R7
U 1 1 5CF1F183
P 6500 5150
F 0 "R7" V 6700 5150 50  0000 C CNN
F 1 "4.7k" V 6600 5150 50  0000 C CNN
F 2 "Resistor_SMD:R_1206_3216Metric_Pad1.42x1.75mm_HandSolder" V 6430 5150 50  0001 C CNN
F 3 "~" H 6500 5150 50  0001 C CNN
	1    6500 5150
	0    1    1    0   
$EndComp
Wire Wire Line
	6650 5150 6900 5150
Wire Wire Line
	6350 5150 3100 5150
Wire Wire Line
	3100 5150 3100 3050
Wire Wire Line
	3100 3050 3400 3050
$Comp
L Device:R R1
U 1 1 5CF21596
P 3100 2750
F 0 "R1" H 3170 2796 50  0000 L CNN
F 1 "10k" H 3170 2705 50  0000 L CNN
F 2 "Resistor_SMD:R_1206_3216Metric_Pad1.42x1.75mm_HandSolder" V 3030 2750 50  0001 C CNN
F 3 "~" H 3100 2750 50  0001 C CNN
	1    3100 2750
	1    0    0    -1  
$EndComp
$Comp
L Device:C_Small C3
U 1 1 5CF224B5
P 3400 2750
F 0 "C3" H 3492 2796 50  0000 L CNN
F 1 "10n" H 3492 2705 50  0000 L CNN
F 2 "Capacitor_SMD:C_1206_3216Metric_Pad1.42x1.75mm_HandSolder" H 3400 2750 50  0001 C CNN
F 3 "~" H 3400 2750 50  0001 C CNN
	1    3400 2750
	1    0    0    -1  
$EndComp
Wire Wire Line
	3400 2850 3400 3050
Connection ~ 3400 3050
Wire Wire Line
	3400 3050 4250 3050
Wire Wire Line
	3100 2900 3100 3050
Connection ~ 3100 3050
Wire Wire Line
	4250 2950 3800 2950
Wire Wire Line
	3800 2950 3800 2500
Wire Wire Line
	3800 2500 3400 2500
Wire Wire Line
	3100 2500 3100 2600
Wire Wire Line
	3400 2650 3400 2500
Connection ~ 3400 2500
Wire Wire Line
	3400 2500 3100 2500
Connection ~ 6900 5150
$Comp
L Connector:Conn_01x06_Male J1
U 1 1 5D143133
P 8000 3150
F 0 "J1" H 7972 3032 50  0000 R CNN
F 1 "Conn_01x06_Male" H 7972 3123 50  0000 R CNN
F 2 "Connector_PinHeader_2.54mm:PinHeader_1x06_P2.54mm_Vertical" H 8000 3150 50  0001 C CNN
F 3 "~" H 8000 3150 50  0001 C CNN
	1    8000 3150
	-1   0    0    1   
$EndComp
Wire Wire Line
	6800 2950 7800 2950
Wire Wire Line
	6600 3800 7250 3800
Wire Wire Line
	7250 3800 7250 3050
Wire Wire Line
	7250 3050 7800 3050
Wire Wire Line
	6600 3350 6600 3800
$Comp
L power:GND #PWR0101
U 1 1 5D15B922
P 7750 3500
F 0 "#PWR0101" H 7750 3250 50  0001 C CNN
F 1 "GND" H 7755 3327 50  0000 C CNN
F 2 "" H 7750 3500 50  0001 C CNN
F 3 "" H 7750 3500 50  0001 C CNN
	1    7750 3500
	1    0    0    -1  
$EndComp
Wire Wire Line
	7350 4950 7350 3350
Wire Wire Line
	3250 4950 7350 4950
Wire Wire Line
	7800 3250 7450 3250
Wire Wire Line
	7450 3250 7450 5150
Wire Wire Line
	6900 5150 7450 5150
Wire Wire Line
	7750 3500 7750 2850
Wire Wire Line
	7750 2850 7800 2850
Wire Wire Line
	4750 1300 7450 1300
Wire Wire Line
	7800 3150 7450 3150
Wire Wire Line
	7450 3150 7450 1300
Wire Wire Line
	7350 3350 7800 3350
$EndSCHEMATC
