G04 #@! TF.GenerationSoftware,KiCad,Pcbnew,5.1.2-f72e74a~84~ubuntu19.04.1*
G04 #@! TF.CreationDate,2019-06-26T10:37:21+03:00*
G04 #@! TF.ProjectId,3843_Preamp_PSU,33383433-5f50-4726-9561-6d705f505355,rev?*
G04 #@! TF.SameCoordinates,Original*
G04 #@! TF.FileFunction,Soldermask,Bot*
G04 #@! TF.FilePolarity,Negative*
%FSLAX46Y46*%
G04 Gerber Fmt 4.6, Leading zero omitted, Abs format (unit mm)*
G04 Created by KiCad (PCBNEW 5.1.2-f72e74a~84~ubuntu19.04.1) date 2019-06-26 10:37:21*
%MOMM*%
%LPD*%
G04 APERTURE LIST*
%ADD10C,0.400000*%
%ADD11C,0.100000*%
G04 APERTURE END LIST*
D10*
X87630000Y-84455000D02*
X87630000Y-58420000D01*
X130810000Y-58420000D02*
X87630000Y-58420000D01*
X130810000Y-84455000D02*
X130810000Y-58420000D01*
X87630000Y-84455000D02*
X130810000Y-84455000D01*
D11*
G36*
X107455562Y-80955681D02*
G01*
X107490481Y-80966274D01*
X107522663Y-80983476D01*
X107550873Y-81006627D01*
X107574024Y-81034837D01*
X107591226Y-81067019D01*
X107601819Y-81101938D01*
X107606000Y-81144395D01*
X107606000Y-82285605D01*
X107601819Y-82328062D01*
X107591226Y-82362981D01*
X107574024Y-82395163D01*
X107550873Y-82423373D01*
X107522663Y-82446524D01*
X107490481Y-82463726D01*
X107455562Y-82474319D01*
X107413105Y-82478500D01*
X105946895Y-82478500D01*
X105904438Y-82474319D01*
X105869519Y-82463726D01*
X105837337Y-82446524D01*
X105809127Y-82423373D01*
X105785976Y-82395163D01*
X105768774Y-82362981D01*
X105758181Y-82328062D01*
X105754000Y-82285605D01*
X105754000Y-81144395D01*
X105758181Y-81101938D01*
X105768774Y-81067019D01*
X105785976Y-81034837D01*
X105809127Y-81006627D01*
X105837337Y-80983476D01*
X105869519Y-80966274D01*
X105904438Y-80955681D01*
X105946895Y-80951500D01*
X107413105Y-80951500D01*
X107455562Y-80955681D01*
X107455562Y-80955681D01*
G37*
G36*
X109468228Y-80421703D02*
G01*
X109623100Y-80485853D01*
X109762481Y-80578985D01*
X109881015Y-80697519D01*
X109974147Y-80836900D01*
X110038297Y-80991772D01*
X110071000Y-81156184D01*
X110071000Y-81323816D01*
X110038297Y-81488228D01*
X109974147Y-81643100D01*
X109881015Y-81782481D01*
X109762481Y-81901015D01*
X109623100Y-81994147D01*
X109468228Y-82058297D01*
X109303816Y-82091000D01*
X109136184Y-82091000D01*
X108971772Y-82058297D01*
X108816900Y-81994147D01*
X108677519Y-81901015D01*
X108558985Y-81782481D01*
X108465853Y-81643100D01*
X108401703Y-81488228D01*
X108369000Y-81323816D01*
X108369000Y-81156184D01*
X108401703Y-80991772D01*
X108465853Y-80836900D01*
X108558985Y-80697519D01*
X108677519Y-80578985D01*
X108816900Y-80485853D01*
X108971772Y-80421703D01*
X109136184Y-80389000D01*
X109303816Y-80389000D01*
X109468228Y-80421703D01*
X109468228Y-80421703D01*
G37*
G36*
X104266000Y-80326000D02*
G01*
X101664000Y-80326000D01*
X101664000Y-78424000D01*
X104266000Y-78424000D01*
X104266000Y-80326000D01*
X104266000Y-80326000D01*
G37*
G36*
X100266000Y-80326000D02*
G01*
X97664000Y-80326000D01*
X97664000Y-78424000D01*
X100266000Y-78424000D01*
X100266000Y-80326000D01*
X100266000Y-80326000D01*
G37*
G36*
X110071000Y-79591000D02*
G01*
X108369000Y-79591000D01*
X108369000Y-77889000D01*
X110071000Y-77889000D01*
X110071000Y-79591000D01*
X110071000Y-79591000D01*
G37*
G36*
X107455562Y-77980681D02*
G01*
X107490481Y-77991274D01*
X107522663Y-78008476D01*
X107550873Y-78031627D01*
X107574024Y-78059837D01*
X107591226Y-78092019D01*
X107601819Y-78126938D01*
X107606000Y-78169395D01*
X107606000Y-79310605D01*
X107601819Y-79353062D01*
X107591226Y-79387981D01*
X107574024Y-79420163D01*
X107550873Y-79448373D01*
X107522663Y-79471524D01*
X107490481Y-79488726D01*
X107455562Y-79499319D01*
X107413105Y-79503500D01*
X105946895Y-79503500D01*
X105904438Y-79499319D01*
X105869519Y-79488726D01*
X105837337Y-79471524D01*
X105809127Y-79448373D01*
X105785976Y-79420163D01*
X105768774Y-79387981D01*
X105758181Y-79353062D01*
X105754000Y-79310605D01*
X105754000Y-78169395D01*
X105758181Y-78126938D01*
X105768774Y-78092019D01*
X105785976Y-78059837D01*
X105809127Y-78031627D01*
X105837337Y-78008476D01*
X105869519Y-77991274D01*
X105904438Y-77980681D01*
X105946895Y-77976500D01*
X107413105Y-77976500D01*
X107455562Y-77980681D01*
X107455562Y-77980681D01*
G37*
G36*
X90418228Y-74746703D02*
G01*
X90573100Y-74810853D01*
X90712481Y-74903985D01*
X90831015Y-75022519D01*
X90924147Y-75161900D01*
X90988297Y-75316772D01*
X91021000Y-75481184D01*
X91021000Y-75648816D01*
X90988297Y-75813228D01*
X90924147Y-75968100D01*
X90831015Y-76107481D01*
X90712481Y-76226015D01*
X90573100Y-76319147D01*
X90418228Y-76383297D01*
X90253816Y-76416000D01*
X90086184Y-76416000D01*
X89921772Y-76383297D01*
X89766900Y-76319147D01*
X89627519Y-76226015D01*
X89508985Y-76107481D01*
X89415853Y-75968100D01*
X89351703Y-75813228D01*
X89319000Y-75648816D01*
X89319000Y-75481184D01*
X89351703Y-75316772D01*
X89415853Y-75161900D01*
X89508985Y-75022519D01*
X89627519Y-74903985D01*
X89766900Y-74810853D01*
X89921772Y-74746703D01*
X90086184Y-74714000D01*
X90253816Y-74714000D01*
X90418228Y-74746703D01*
X90418228Y-74746703D01*
G37*
G36*
X94228228Y-74746703D02*
G01*
X94383100Y-74810853D01*
X94522481Y-74903985D01*
X94641015Y-75022519D01*
X94734147Y-75161900D01*
X94798297Y-75316772D01*
X94831000Y-75481184D01*
X94831000Y-75648816D01*
X94798297Y-75813228D01*
X94734147Y-75968100D01*
X94641015Y-76107481D01*
X94522481Y-76226015D01*
X94383100Y-76319147D01*
X94228228Y-76383297D01*
X94063816Y-76416000D01*
X93896184Y-76416000D01*
X93731772Y-76383297D01*
X93576900Y-76319147D01*
X93437519Y-76226015D01*
X93318985Y-76107481D01*
X93225853Y-75968100D01*
X93161703Y-75813228D01*
X93129000Y-75648816D01*
X93129000Y-75481184D01*
X93161703Y-75316772D01*
X93225853Y-75161900D01*
X93318985Y-75022519D01*
X93437519Y-74903985D01*
X93576900Y-74810853D01*
X93731772Y-74746703D01*
X93896184Y-74714000D01*
X94063816Y-74714000D01*
X94228228Y-74746703D01*
X94228228Y-74746703D01*
G37*
G36*
X121411000Y-75881000D02*
G01*
X118809000Y-75881000D01*
X118809000Y-73979000D01*
X121411000Y-73979000D01*
X121411000Y-75881000D01*
X121411000Y-75881000D01*
G37*
G36*
X117411000Y-75881000D02*
G01*
X114809000Y-75881000D01*
X114809000Y-73979000D01*
X117411000Y-73979000D01*
X117411000Y-75881000D01*
X117411000Y-75881000D01*
G37*
G36*
X103036823Y-74091313D02*
G01*
X103197242Y-74139976D01*
X103329906Y-74210886D01*
X103345078Y-74218996D01*
X103474659Y-74325341D01*
X103581004Y-74454922D01*
X103581005Y-74454924D01*
X103660024Y-74602758D01*
X103708687Y-74763177D01*
X103725117Y-74930000D01*
X103708687Y-75096823D01*
X103660024Y-75257242D01*
X103589114Y-75389906D01*
X103581004Y-75405078D01*
X103474659Y-75534659D01*
X103345078Y-75641004D01*
X103345076Y-75641005D01*
X103197242Y-75720024D01*
X103036823Y-75768687D01*
X102911804Y-75781000D01*
X102828196Y-75781000D01*
X102703177Y-75768687D01*
X102542758Y-75720024D01*
X102394924Y-75641005D01*
X102394922Y-75641004D01*
X102265341Y-75534659D01*
X102158996Y-75405078D01*
X102150886Y-75389906D01*
X102079976Y-75257242D01*
X102031313Y-75096823D01*
X102014883Y-74930000D01*
X102031313Y-74763177D01*
X102079976Y-74602758D01*
X102158995Y-74454924D01*
X102158996Y-74454922D01*
X102265341Y-74325341D01*
X102394922Y-74218996D01*
X102410094Y-74210886D01*
X102542758Y-74139976D01*
X102703177Y-74091313D01*
X102828196Y-74079000D01*
X102911804Y-74079000D01*
X103036823Y-74091313D01*
X103036823Y-74091313D01*
G37*
G36*
X108116823Y-74091313D02*
G01*
X108277242Y-74139976D01*
X108409906Y-74210886D01*
X108425078Y-74218996D01*
X108554659Y-74325341D01*
X108661004Y-74454922D01*
X108661005Y-74454924D01*
X108740024Y-74602758D01*
X108788687Y-74763177D01*
X108805117Y-74930000D01*
X108788687Y-75096823D01*
X108740024Y-75257242D01*
X108669114Y-75389906D01*
X108661004Y-75405078D01*
X108554659Y-75534659D01*
X108425078Y-75641004D01*
X108425076Y-75641005D01*
X108277242Y-75720024D01*
X108116823Y-75768687D01*
X107991804Y-75781000D01*
X107908196Y-75781000D01*
X107783177Y-75768687D01*
X107622758Y-75720024D01*
X107474924Y-75641005D01*
X107474922Y-75641004D01*
X107345341Y-75534659D01*
X107238996Y-75405078D01*
X107230886Y-75389906D01*
X107159976Y-75257242D01*
X107111313Y-75096823D01*
X107094883Y-74930000D01*
X107111313Y-74763177D01*
X107159976Y-74602758D01*
X107238995Y-74454924D01*
X107238996Y-74454922D01*
X107345341Y-74325341D01*
X107474922Y-74218996D01*
X107490094Y-74210886D01*
X107622758Y-74139976D01*
X107783177Y-74091313D01*
X107908196Y-74079000D01*
X107991804Y-74079000D01*
X108116823Y-74091313D01*
X108116823Y-74091313D01*
G37*
G36*
X100496823Y-74091313D02*
G01*
X100657242Y-74139976D01*
X100789906Y-74210886D01*
X100805078Y-74218996D01*
X100934659Y-74325341D01*
X101041004Y-74454922D01*
X101041005Y-74454924D01*
X101120024Y-74602758D01*
X101168687Y-74763177D01*
X101185117Y-74930000D01*
X101168687Y-75096823D01*
X101120024Y-75257242D01*
X101049114Y-75389906D01*
X101041004Y-75405078D01*
X100934659Y-75534659D01*
X100805078Y-75641004D01*
X100805076Y-75641005D01*
X100657242Y-75720024D01*
X100496823Y-75768687D01*
X100371804Y-75781000D01*
X100288196Y-75781000D01*
X100163177Y-75768687D01*
X100002758Y-75720024D01*
X99854924Y-75641005D01*
X99854922Y-75641004D01*
X99725341Y-75534659D01*
X99618996Y-75405078D01*
X99610886Y-75389906D01*
X99539976Y-75257242D01*
X99491313Y-75096823D01*
X99474883Y-74930000D01*
X99491313Y-74763177D01*
X99539976Y-74602758D01*
X99618995Y-74454924D01*
X99618996Y-74454922D01*
X99725341Y-74325341D01*
X99854922Y-74218996D01*
X99870094Y-74210886D01*
X100002758Y-74139976D01*
X100163177Y-74091313D01*
X100288196Y-74079000D01*
X100371804Y-74079000D01*
X100496823Y-74091313D01*
X100496823Y-74091313D01*
G37*
G36*
X105576823Y-74091313D02*
G01*
X105737242Y-74139976D01*
X105869906Y-74210886D01*
X105885078Y-74218996D01*
X106014659Y-74325341D01*
X106121004Y-74454922D01*
X106121005Y-74454924D01*
X106200024Y-74602758D01*
X106248687Y-74763177D01*
X106265117Y-74930000D01*
X106248687Y-75096823D01*
X106200024Y-75257242D01*
X106129114Y-75389906D01*
X106121004Y-75405078D01*
X106014659Y-75534659D01*
X105885078Y-75641004D01*
X105885076Y-75641005D01*
X105737242Y-75720024D01*
X105576823Y-75768687D01*
X105451804Y-75781000D01*
X105368196Y-75781000D01*
X105243177Y-75768687D01*
X105082758Y-75720024D01*
X104934924Y-75641005D01*
X104934922Y-75641004D01*
X104805341Y-75534659D01*
X104698996Y-75405078D01*
X104690886Y-75389906D01*
X104619976Y-75257242D01*
X104571313Y-75096823D01*
X104554883Y-74930000D01*
X104571313Y-74763177D01*
X104619976Y-74602758D01*
X104698995Y-74454924D01*
X104698996Y-74454922D01*
X104805341Y-74325341D01*
X104934922Y-74218996D01*
X104950094Y-74210886D01*
X105082758Y-74139976D01*
X105243177Y-74091313D01*
X105368196Y-74079000D01*
X105451804Y-74079000D01*
X105576823Y-74091313D01*
X105576823Y-74091313D01*
G37*
G36*
X129171000Y-75196000D02*
G01*
X127369000Y-75196000D01*
X127369000Y-73394000D01*
X129171000Y-73394000D01*
X129171000Y-75196000D01*
X129171000Y-75196000D01*
G37*
G36*
X97403228Y-72761703D02*
G01*
X97558100Y-72825853D01*
X97697481Y-72918985D01*
X97816015Y-73037519D01*
X97909147Y-73176900D01*
X97973297Y-73331772D01*
X98006000Y-73496184D01*
X98006000Y-73663816D01*
X97973297Y-73828228D01*
X97909147Y-73983100D01*
X97816015Y-74122481D01*
X97697481Y-74241015D01*
X97558100Y-74334147D01*
X97403228Y-74398297D01*
X97238816Y-74431000D01*
X97071184Y-74431000D01*
X96906772Y-74398297D01*
X96751900Y-74334147D01*
X96612519Y-74241015D01*
X96493985Y-74122481D01*
X96400853Y-73983100D01*
X96336703Y-73828228D01*
X96304000Y-73663816D01*
X96304000Y-73496184D01*
X96336703Y-73331772D01*
X96400853Y-73176900D01*
X96493985Y-73037519D01*
X96612519Y-72918985D01*
X96751900Y-72825853D01*
X96906772Y-72761703D01*
X97071184Y-72729000D01*
X97238816Y-72729000D01*
X97403228Y-72761703D01*
X97403228Y-72761703D01*
G37*
G36*
X91581562Y-70833181D02*
G01*
X91616481Y-70843774D01*
X91648663Y-70860976D01*
X91676873Y-70884127D01*
X91700024Y-70912337D01*
X91717226Y-70944519D01*
X91727819Y-70979438D01*
X91732000Y-71021895D01*
X91732000Y-72488105D01*
X91727819Y-72530562D01*
X91717226Y-72565481D01*
X91700024Y-72597663D01*
X91676873Y-72625873D01*
X91648663Y-72649024D01*
X91616481Y-72666226D01*
X91581562Y-72676819D01*
X91539105Y-72681000D01*
X90397895Y-72681000D01*
X90355438Y-72676819D01*
X90320519Y-72666226D01*
X90288337Y-72649024D01*
X90260127Y-72625873D01*
X90236976Y-72597663D01*
X90219774Y-72565481D01*
X90209181Y-72530562D01*
X90205000Y-72488105D01*
X90205000Y-71021895D01*
X90209181Y-70979438D01*
X90219774Y-70944519D01*
X90236976Y-70912337D01*
X90260127Y-70884127D01*
X90288337Y-70860976D01*
X90320519Y-70843774D01*
X90355438Y-70833181D01*
X90397895Y-70829000D01*
X91539105Y-70829000D01*
X91581562Y-70833181D01*
X91581562Y-70833181D01*
G37*
G36*
X105544604Y-70833347D02*
G01*
X105581144Y-70844432D01*
X105614821Y-70862433D01*
X105644341Y-70886659D01*
X105668567Y-70916179D01*
X105686568Y-70949856D01*
X105697653Y-70986396D01*
X105702000Y-71030538D01*
X105702000Y-72479462D01*
X105697653Y-72523604D01*
X105686568Y-72560144D01*
X105668567Y-72593821D01*
X105644341Y-72623341D01*
X105614821Y-72647567D01*
X105581144Y-72665568D01*
X105544604Y-72676653D01*
X105500462Y-72681000D01*
X104551538Y-72681000D01*
X104507396Y-72676653D01*
X104470856Y-72665568D01*
X104437179Y-72647567D01*
X104407659Y-72623341D01*
X104383433Y-72593821D01*
X104365432Y-72560144D01*
X104354347Y-72523604D01*
X104350000Y-72479462D01*
X104350000Y-71030538D01*
X104354347Y-70986396D01*
X104365432Y-70949856D01*
X104383433Y-70916179D01*
X104407659Y-70886659D01*
X104437179Y-70862433D01*
X104470856Y-70844432D01*
X104507396Y-70833347D01*
X104551538Y-70829000D01*
X105500462Y-70829000D01*
X105544604Y-70833347D01*
X105544604Y-70833347D01*
G37*
G36*
X108344604Y-70833347D02*
G01*
X108381144Y-70844432D01*
X108414821Y-70862433D01*
X108444341Y-70886659D01*
X108468567Y-70916179D01*
X108486568Y-70949856D01*
X108497653Y-70986396D01*
X108502000Y-71030538D01*
X108502000Y-72479462D01*
X108497653Y-72523604D01*
X108486568Y-72560144D01*
X108468567Y-72593821D01*
X108444341Y-72623341D01*
X108414821Y-72647567D01*
X108381144Y-72665568D01*
X108344604Y-72676653D01*
X108300462Y-72681000D01*
X107351538Y-72681000D01*
X107307396Y-72676653D01*
X107270856Y-72665568D01*
X107237179Y-72647567D01*
X107207659Y-72623341D01*
X107183433Y-72593821D01*
X107165432Y-72560144D01*
X107154347Y-72523604D01*
X107150000Y-72479462D01*
X107150000Y-71030538D01*
X107154347Y-70986396D01*
X107165432Y-70949856D01*
X107183433Y-70916179D01*
X107207659Y-70886659D01*
X107237179Y-70862433D01*
X107270856Y-70844432D01*
X107307396Y-70833347D01*
X107351538Y-70829000D01*
X108300462Y-70829000D01*
X108344604Y-70833347D01*
X108344604Y-70833347D01*
G37*
G36*
X94556562Y-70833181D02*
G01*
X94591481Y-70843774D01*
X94623663Y-70860976D01*
X94651873Y-70884127D01*
X94675024Y-70912337D01*
X94692226Y-70944519D01*
X94702819Y-70979438D01*
X94707000Y-71021895D01*
X94707000Y-72488105D01*
X94702819Y-72530562D01*
X94692226Y-72565481D01*
X94675024Y-72597663D01*
X94651873Y-72625873D01*
X94623663Y-72649024D01*
X94591481Y-72666226D01*
X94556562Y-72676819D01*
X94514105Y-72681000D01*
X93372895Y-72681000D01*
X93330438Y-72676819D01*
X93295519Y-72666226D01*
X93263337Y-72649024D01*
X93235127Y-72625873D01*
X93211976Y-72597663D01*
X93194774Y-72565481D01*
X93184181Y-72530562D01*
X93180000Y-72488105D01*
X93180000Y-71021895D01*
X93184181Y-70979438D01*
X93194774Y-70944519D01*
X93211976Y-70912337D01*
X93235127Y-70884127D01*
X93263337Y-70860976D01*
X93295519Y-70843774D01*
X93330438Y-70833181D01*
X93372895Y-70829000D01*
X94514105Y-70829000D01*
X94556562Y-70833181D01*
X94556562Y-70833181D01*
G37*
G36*
X128380442Y-70860518D02*
G01*
X128446627Y-70867037D01*
X128616466Y-70918557D01*
X128772991Y-71002222D01*
X128796962Y-71021895D01*
X128910186Y-71114814D01*
X128983226Y-71203815D01*
X129022778Y-71252009D01*
X129106443Y-71408534D01*
X129157963Y-71578373D01*
X129175359Y-71755000D01*
X129157963Y-71931627D01*
X129106443Y-72101466D01*
X129022778Y-72257991D01*
X128993448Y-72293729D01*
X128910186Y-72395186D01*
X128808729Y-72478448D01*
X128772991Y-72507778D01*
X128616466Y-72591443D01*
X128446627Y-72642963D01*
X128385088Y-72649024D01*
X128314260Y-72656000D01*
X128225740Y-72656000D01*
X128154912Y-72649024D01*
X128093373Y-72642963D01*
X127923534Y-72591443D01*
X127767009Y-72507778D01*
X127731271Y-72478448D01*
X127629814Y-72395186D01*
X127546552Y-72293729D01*
X127517222Y-72257991D01*
X127433557Y-72101466D01*
X127382037Y-71931627D01*
X127364641Y-71755000D01*
X127382037Y-71578373D01*
X127433557Y-71408534D01*
X127517222Y-71252009D01*
X127556774Y-71203815D01*
X127629814Y-71114814D01*
X127743038Y-71021895D01*
X127767009Y-71002222D01*
X127923534Y-70918557D01*
X128093373Y-70867037D01*
X128159558Y-70860518D01*
X128225740Y-70854000D01*
X128314260Y-70854000D01*
X128380442Y-70860518D01*
X128380442Y-70860518D01*
G37*
G36*
X120263228Y-70301703D02*
G01*
X120418100Y-70365853D01*
X120557481Y-70458985D01*
X120676015Y-70577519D01*
X120769147Y-70716900D01*
X120833297Y-70871772D01*
X120866000Y-71036184D01*
X120866000Y-71203816D01*
X120833297Y-71368228D01*
X120769147Y-71523100D01*
X120676015Y-71662481D01*
X120557481Y-71781015D01*
X120418100Y-71874147D01*
X120263228Y-71938297D01*
X120098816Y-71971000D01*
X119931184Y-71971000D01*
X119766772Y-71938297D01*
X119611900Y-71874147D01*
X119472519Y-71781015D01*
X119353985Y-71662481D01*
X119260853Y-71523100D01*
X119196703Y-71368228D01*
X119164000Y-71203816D01*
X119164000Y-71036184D01*
X119196703Y-70871772D01*
X119260853Y-70716900D01*
X119353985Y-70577519D01*
X119472519Y-70458985D01*
X119611900Y-70365853D01*
X119766772Y-70301703D01*
X119931184Y-70269000D01*
X120098816Y-70269000D01*
X120263228Y-70301703D01*
X120263228Y-70301703D01*
G37*
G36*
X123991823Y-70281313D02*
G01*
X124152242Y-70329976D01*
X124219361Y-70365852D01*
X124300078Y-70408996D01*
X124429659Y-70515341D01*
X124536004Y-70644922D01*
X124536005Y-70644924D01*
X124615024Y-70792758D01*
X124663687Y-70953177D01*
X124680117Y-71120000D01*
X124663687Y-71286823D01*
X124615024Y-71447242D01*
X124574477Y-71523100D01*
X124536004Y-71595078D01*
X124429659Y-71724659D01*
X124300078Y-71831004D01*
X124300076Y-71831005D01*
X124152242Y-71910024D01*
X123991823Y-71958687D01*
X123866804Y-71971000D01*
X123783196Y-71971000D01*
X123658177Y-71958687D01*
X123497758Y-71910024D01*
X123349924Y-71831005D01*
X123349922Y-71831004D01*
X123220341Y-71724659D01*
X123113996Y-71595078D01*
X123075523Y-71523100D01*
X123034976Y-71447242D01*
X122986313Y-71286823D01*
X122969883Y-71120000D01*
X122986313Y-70953177D01*
X123034976Y-70792758D01*
X123113995Y-70644924D01*
X123113996Y-70644922D01*
X123220341Y-70515341D01*
X123349922Y-70408996D01*
X123430639Y-70365852D01*
X123497758Y-70329976D01*
X123658177Y-70281313D01*
X123783196Y-70269000D01*
X123866804Y-70269000D01*
X123991823Y-70281313D01*
X123991823Y-70281313D01*
G37*
G36*
X116371823Y-70281313D02*
G01*
X116532242Y-70329976D01*
X116599361Y-70365852D01*
X116680078Y-70408996D01*
X116809659Y-70515341D01*
X116916004Y-70644922D01*
X116916005Y-70644924D01*
X116995024Y-70792758D01*
X117043687Y-70953177D01*
X117060117Y-71120000D01*
X117043687Y-71286823D01*
X116995024Y-71447242D01*
X116954477Y-71523100D01*
X116916004Y-71595078D01*
X116809659Y-71724659D01*
X116680078Y-71831004D01*
X116680076Y-71831005D01*
X116532242Y-71910024D01*
X116371823Y-71958687D01*
X116246804Y-71971000D01*
X116163196Y-71971000D01*
X116038177Y-71958687D01*
X115877758Y-71910024D01*
X115729924Y-71831005D01*
X115729922Y-71831004D01*
X115600341Y-71724659D01*
X115493996Y-71595078D01*
X115455523Y-71523100D01*
X115414976Y-71447242D01*
X115366313Y-71286823D01*
X115349883Y-71120000D01*
X115366313Y-70953177D01*
X115414976Y-70792758D01*
X115493995Y-70644924D01*
X115493996Y-70644922D01*
X115600341Y-70515341D01*
X115729922Y-70408996D01*
X115810639Y-70365852D01*
X115877758Y-70329976D01*
X116038177Y-70281313D01*
X116163196Y-70269000D01*
X116246804Y-70269000D01*
X116371823Y-70281313D01*
X116371823Y-70281313D01*
G37*
G36*
X128380442Y-68320518D02*
G01*
X128446627Y-68327037D01*
X128616466Y-68378557D01*
X128772991Y-68462222D01*
X128808729Y-68491552D01*
X128910186Y-68574814D01*
X128983226Y-68663815D01*
X129022778Y-68712009D01*
X129106443Y-68868534D01*
X129157963Y-69038373D01*
X129175359Y-69215000D01*
X129157963Y-69391627D01*
X129106443Y-69561466D01*
X129022778Y-69717991D01*
X128993448Y-69753729D01*
X128910186Y-69855186D01*
X128808729Y-69938448D01*
X128772991Y-69967778D01*
X128616466Y-70051443D01*
X128446627Y-70102963D01*
X128380442Y-70109482D01*
X128314260Y-70116000D01*
X128225740Y-70116000D01*
X128159558Y-70109482D01*
X128093373Y-70102963D01*
X127923534Y-70051443D01*
X127767009Y-69967778D01*
X127731271Y-69938448D01*
X127629814Y-69855186D01*
X127546552Y-69753729D01*
X127517222Y-69717991D01*
X127433557Y-69561466D01*
X127382037Y-69391627D01*
X127364641Y-69215000D01*
X127382037Y-69038373D01*
X127433557Y-68868534D01*
X127517222Y-68712009D01*
X127556774Y-68663815D01*
X127629814Y-68574814D01*
X127731271Y-68491552D01*
X127767009Y-68462222D01*
X127923534Y-68378557D01*
X128093373Y-68327037D01*
X128159558Y-68320518D01*
X128225740Y-68314000D01*
X128314260Y-68314000D01*
X128380442Y-68320518D01*
X128380442Y-68320518D01*
G37*
G36*
X97403228Y-67761703D02*
G01*
X97558100Y-67825853D01*
X97697481Y-67918985D01*
X97816015Y-68037519D01*
X97909147Y-68176900D01*
X97973297Y-68331772D01*
X98006000Y-68496184D01*
X98006000Y-68663816D01*
X97973297Y-68828228D01*
X97909147Y-68983100D01*
X97816015Y-69122481D01*
X97697481Y-69241015D01*
X97558100Y-69334147D01*
X97403228Y-69398297D01*
X97238816Y-69431000D01*
X97071184Y-69431000D01*
X96906772Y-69398297D01*
X96751900Y-69334147D01*
X96612519Y-69241015D01*
X96493985Y-69122481D01*
X96400853Y-68983100D01*
X96336703Y-68828228D01*
X96304000Y-68663816D01*
X96304000Y-68496184D01*
X96336703Y-68331772D01*
X96400853Y-68176900D01*
X96493985Y-68037519D01*
X96612519Y-67918985D01*
X96751900Y-67825853D01*
X96906772Y-67761703D01*
X97071184Y-67729000D01*
X97238816Y-67729000D01*
X97403228Y-67761703D01*
X97403228Y-67761703D01*
G37*
G36*
X113278228Y-67761703D02*
G01*
X113433100Y-67825853D01*
X113572481Y-67918985D01*
X113691015Y-68037519D01*
X113784147Y-68176900D01*
X113848297Y-68331772D01*
X113881000Y-68496184D01*
X113881000Y-68663816D01*
X113848297Y-68828228D01*
X113784147Y-68983100D01*
X113691015Y-69122481D01*
X113572481Y-69241015D01*
X113433100Y-69334147D01*
X113278228Y-69398297D01*
X113113816Y-69431000D01*
X112946184Y-69431000D01*
X112781772Y-69398297D01*
X112626900Y-69334147D01*
X112487519Y-69241015D01*
X112368985Y-69122481D01*
X112275853Y-68983100D01*
X112211703Y-68828228D01*
X112179000Y-68663816D01*
X112179000Y-68496184D01*
X112211703Y-68331772D01*
X112275853Y-68176900D01*
X112368985Y-68037519D01*
X112487519Y-67918985D01*
X112626900Y-67825853D01*
X112781772Y-67761703D01*
X112946184Y-67729000D01*
X113113816Y-67729000D01*
X113278228Y-67761703D01*
X113278228Y-67761703D01*
G37*
G36*
X103036823Y-66471313D02*
G01*
X103197242Y-66519976D01*
X103329906Y-66590886D01*
X103345078Y-66598996D01*
X103474659Y-66705341D01*
X103581004Y-66834922D01*
X103581005Y-66834924D01*
X103660024Y-66982758D01*
X103708687Y-67143177D01*
X103725117Y-67310000D01*
X103708687Y-67476823D01*
X103660024Y-67637242D01*
X103610978Y-67729000D01*
X103581004Y-67785078D01*
X103474659Y-67914659D01*
X103345078Y-68021004D01*
X103345076Y-68021005D01*
X103197242Y-68100024D01*
X103036823Y-68148687D01*
X102911804Y-68161000D01*
X102828196Y-68161000D01*
X102703177Y-68148687D01*
X102542758Y-68100024D01*
X102394924Y-68021005D01*
X102394922Y-68021004D01*
X102265341Y-67914659D01*
X102158996Y-67785078D01*
X102129022Y-67729000D01*
X102079976Y-67637242D01*
X102031313Y-67476823D01*
X102014883Y-67310000D01*
X102031313Y-67143177D01*
X102079976Y-66982758D01*
X102158995Y-66834924D01*
X102158996Y-66834922D01*
X102265341Y-66705341D01*
X102394922Y-66598996D01*
X102410094Y-66590886D01*
X102542758Y-66519976D01*
X102703177Y-66471313D01*
X102828196Y-66459000D01*
X102911804Y-66459000D01*
X103036823Y-66471313D01*
X103036823Y-66471313D01*
G37*
G36*
X105576823Y-66471313D02*
G01*
X105737242Y-66519976D01*
X105869906Y-66590886D01*
X105885078Y-66598996D01*
X106014659Y-66705341D01*
X106121004Y-66834922D01*
X106121005Y-66834924D01*
X106200024Y-66982758D01*
X106248687Y-67143177D01*
X106265117Y-67310000D01*
X106248687Y-67476823D01*
X106200024Y-67637242D01*
X106150978Y-67729000D01*
X106121004Y-67785078D01*
X106014659Y-67914659D01*
X105885078Y-68021004D01*
X105885076Y-68021005D01*
X105737242Y-68100024D01*
X105576823Y-68148687D01*
X105451804Y-68161000D01*
X105368196Y-68161000D01*
X105243177Y-68148687D01*
X105082758Y-68100024D01*
X104934924Y-68021005D01*
X104934922Y-68021004D01*
X104805341Y-67914659D01*
X104698996Y-67785078D01*
X104669022Y-67729000D01*
X104619976Y-67637242D01*
X104571313Y-67476823D01*
X104554883Y-67310000D01*
X104571313Y-67143177D01*
X104619976Y-66982758D01*
X104698995Y-66834924D01*
X104698996Y-66834922D01*
X104805341Y-66705341D01*
X104934922Y-66598996D01*
X104950094Y-66590886D01*
X105082758Y-66519976D01*
X105243177Y-66471313D01*
X105368196Y-66459000D01*
X105451804Y-66459000D01*
X105576823Y-66471313D01*
X105576823Y-66471313D01*
G37*
G36*
X100496823Y-66471313D02*
G01*
X100657242Y-66519976D01*
X100789906Y-66590886D01*
X100805078Y-66598996D01*
X100934659Y-66705341D01*
X101041004Y-66834922D01*
X101041005Y-66834924D01*
X101120024Y-66982758D01*
X101168687Y-67143177D01*
X101185117Y-67310000D01*
X101168687Y-67476823D01*
X101120024Y-67637242D01*
X101070978Y-67729000D01*
X101041004Y-67785078D01*
X100934659Y-67914659D01*
X100805078Y-68021004D01*
X100805076Y-68021005D01*
X100657242Y-68100024D01*
X100496823Y-68148687D01*
X100371804Y-68161000D01*
X100288196Y-68161000D01*
X100163177Y-68148687D01*
X100002758Y-68100024D01*
X99854924Y-68021005D01*
X99854922Y-68021004D01*
X99725341Y-67914659D01*
X99618996Y-67785078D01*
X99589022Y-67729000D01*
X99539976Y-67637242D01*
X99491313Y-67476823D01*
X99474883Y-67310000D01*
X99491313Y-67143177D01*
X99539976Y-66982758D01*
X99618995Y-66834924D01*
X99618996Y-66834922D01*
X99725341Y-66705341D01*
X99854922Y-66598996D01*
X99870094Y-66590886D01*
X100002758Y-66519976D01*
X100163177Y-66471313D01*
X100288196Y-66459000D01*
X100371804Y-66459000D01*
X100496823Y-66471313D01*
X100496823Y-66471313D01*
G37*
G36*
X108801000Y-68161000D02*
G01*
X107099000Y-68161000D01*
X107099000Y-66459000D01*
X108801000Y-66459000D01*
X108801000Y-68161000D01*
X108801000Y-68161000D01*
G37*
G36*
X128380443Y-65780519D02*
G01*
X128446627Y-65787037D01*
X128616466Y-65838557D01*
X128772991Y-65922222D01*
X128808729Y-65951552D01*
X128910186Y-66034814D01*
X128993448Y-66136271D01*
X129022778Y-66172009D01*
X129106443Y-66328534D01*
X129157963Y-66498373D01*
X129175359Y-66675000D01*
X129157963Y-66851627D01*
X129106443Y-67021466D01*
X129022778Y-67177991D01*
X128993448Y-67213729D01*
X128910186Y-67315186D01*
X128808729Y-67398448D01*
X128772991Y-67427778D01*
X128616466Y-67511443D01*
X128446627Y-67562963D01*
X128380443Y-67569481D01*
X128314260Y-67576000D01*
X128225740Y-67576000D01*
X128159557Y-67569481D01*
X128093373Y-67562963D01*
X127923534Y-67511443D01*
X127767009Y-67427778D01*
X127731271Y-67398448D01*
X127629814Y-67315186D01*
X127546552Y-67213729D01*
X127517222Y-67177991D01*
X127433557Y-67021466D01*
X127382037Y-66851627D01*
X127364641Y-66675000D01*
X127382037Y-66498373D01*
X127433557Y-66328534D01*
X127517222Y-66172009D01*
X127546552Y-66136271D01*
X127629814Y-66034814D01*
X127731271Y-65951552D01*
X127767009Y-65922222D01*
X127923534Y-65838557D01*
X128093373Y-65787037D01*
X128159557Y-65780519D01*
X128225740Y-65774000D01*
X128314260Y-65774000D01*
X128380443Y-65780519D01*
X128380443Y-65780519D01*
G37*
G36*
X90336823Y-64566313D02*
G01*
X90497242Y-64614976D01*
X90629906Y-64685886D01*
X90645078Y-64693996D01*
X90774659Y-64800341D01*
X90881004Y-64929922D01*
X90881005Y-64929924D01*
X90960024Y-65077758D01*
X91008687Y-65238177D01*
X91025117Y-65405000D01*
X91008687Y-65571823D01*
X90960024Y-65732242D01*
X90930735Y-65787037D01*
X90881004Y-65880078D01*
X90774659Y-66009659D01*
X90645078Y-66116004D01*
X90645076Y-66116005D01*
X90497242Y-66195024D01*
X90336823Y-66243687D01*
X90211804Y-66256000D01*
X90128196Y-66256000D01*
X90003177Y-66243687D01*
X89842758Y-66195024D01*
X89694924Y-66116005D01*
X89694922Y-66116004D01*
X89565341Y-66009659D01*
X89458996Y-65880078D01*
X89409265Y-65787037D01*
X89379976Y-65732242D01*
X89331313Y-65571823D01*
X89314883Y-65405000D01*
X89331313Y-65238177D01*
X89379976Y-65077758D01*
X89458995Y-64929924D01*
X89458996Y-64929922D01*
X89565341Y-64800341D01*
X89694922Y-64693996D01*
X89710094Y-64685886D01*
X89842758Y-64614976D01*
X90003177Y-64566313D01*
X90128196Y-64554000D01*
X90211804Y-64554000D01*
X90336823Y-64566313D01*
X90336823Y-64566313D01*
G37*
G36*
X94146823Y-64566313D02*
G01*
X94307242Y-64614976D01*
X94439906Y-64685886D01*
X94455078Y-64693996D01*
X94584659Y-64800341D01*
X94691004Y-64929922D01*
X94691005Y-64929924D01*
X94770024Y-65077758D01*
X94818687Y-65238177D01*
X94835117Y-65405000D01*
X94818687Y-65571823D01*
X94770024Y-65732242D01*
X94740735Y-65787037D01*
X94691004Y-65880078D01*
X94584659Y-66009659D01*
X94455078Y-66116004D01*
X94455076Y-66116005D01*
X94307242Y-66195024D01*
X94146823Y-66243687D01*
X94021804Y-66256000D01*
X93938196Y-66256000D01*
X93813177Y-66243687D01*
X93652758Y-66195024D01*
X93504924Y-66116005D01*
X93504922Y-66116004D01*
X93375341Y-66009659D01*
X93268996Y-65880078D01*
X93219265Y-65787037D01*
X93189976Y-65732242D01*
X93141313Y-65571823D01*
X93124883Y-65405000D01*
X93141313Y-65238177D01*
X93189976Y-65077758D01*
X93268995Y-64929924D01*
X93268996Y-64929922D01*
X93375341Y-64800341D01*
X93504922Y-64693996D01*
X93520094Y-64685886D01*
X93652758Y-64614976D01*
X93813177Y-64566313D01*
X93938196Y-64554000D01*
X94021804Y-64554000D01*
X94146823Y-64566313D01*
X94146823Y-64566313D01*
G37*
G36*
X128380443Y-63240519D02*
G01*
X128446627Y-63247037D01*
X128616466Y-63298557D01*
X128772991Y-63382222D01*
X128808729Y-63411552D01*
X128910186Y-63494814D01*
X128990369Y-63592519D01*
X129022778Y-63632009D01*
X129106443Y-63788534D01*
X129157963Y-63958373D01*
X129175359Y-64135000D01*
X129157963Y-64311627D01*
X129106443Y-64481466D01*
X129022778Y-64637991D01*
X128993448Y-64673729D01*
X128910186Y-64775186D01*
X128808729Y-64858448D01*
X128772991Y-64887778D01*
X128616466Y-64971443D01*
X128446627Y-65022963D01*
X128380442Y-65029482D01*
X128314260Y-65036000D01*
X128225740Y-65036000D01*
X128159558Y-65029482D01*
X128093373Y-65022963D01*
X127923534Y-64971443D01*
X127767009Y-64887778D01*
X127731271Y-64858448D01*
X127629814Y-64775186D01*
X127546552Y-64673729D01*
X127517222Y-64637991D01*
X127433557Y-64481466D01*
X127382037Y-64311627D01*
X127364641Y-64135000D01*
X127382037Y-63958373D01*
X127433557Y-63788534D01*
X127517222Y-63632009D01*
X127549631Y-63592519D01*
X127629814Y-63494814D01*
X127731271Y-63411552D01*
X127767009Y-63382222D01*
X127923534Y-63298557D01*
X128093373Y-63247037D01*
X128159557Y-63240519D01*
X128225740Y-63234000D01*
X128314260Y-63234000D01*
X128380443Y-63240519D01*
X128380443Y-63240519D01*
G37*
G36*
X99226823Y-63296313D02*
G01*
X99387242Y-63344976D01*
X99454361Y-63380852D01*
X99535078Y-63423996D01*
X99664659Y-63530341D01*
X99771004Y-63659922D01*
X99771005Y-63659924D01*
X99850024Y-63807758D01*
X99898687Y-63968177D01*
X99915117Y-64135000D01*
X99898687Y-64301823D01*
X99850024Y-64462242D01*
X99809477Y-64538100D01*
X99771004Y-64610078D01*
X99664659Y-64739659D01*
X99535078Y-64846004D01*
X99535076Y-64846005D01*
X99387242Y-64925024D01*
X99226823Y-64973687D01*
X99101804Y-64986000D01*
X99018196Y-64986000D01*
X98893177Y-64973687D01*
X98732758Y-64925024D01*
X98584924Y-64846005D01*
X98584922Y-64846004D01*
X98455341Y-64739659D01*
X98348996Y-64610078D01*
X98310523Y-64538100D01*
X98269976Y-64462242D01*
X98221313Y-64301823D01*
X98204883Y-64135000D01*
X98221313Y-63968177D01*
X98269976Y-63807758D01*
X98348995Y-63659924D01*
X98348996Y-63659922D01*
X98455341Y-63530341D01*
X98584922Y-63423996D01*
X98665639Y-63380852D01*
X98732758Y-63344976D01*
X98893177Y-63296313D01*
X99018196Y-63284000D01*
X99101804Y-63284000D01*
X99226823Y-63296313D01*
X99226823Y-63296313D01*
G37*
G36*
X109468228Y-63316703D02*
G01*
X109623100Y-63380853D01*
X109762481Y-63473985D01*
X109881015Y-63592519D01*
X109974147Y-63731900D01*
X110038297Y-63886772D01*
X110071000Y-64051184D01*
X110071000Y-64218816D01*
X110038297Y-64383228D01*
X109974147Y-64538100D01*
X109881015Y-64677481D01*
X109762481Y-64796015D01*
X109623100Y-64889147D01*
X109468228Y-64953297D01*
X109303816Y-64986000D01*
X109136184Y-64986000D01*
X108971772Y-64953297D01*
X108816900Y-64889147D01*
X108677519Y-64796015D01*
X108558985Y-64677481D01*
X108465853Y-64538100D01*
X108401703Y-64383228D01*
X108369000Y-64218816D01*
X108369000Y-64051184D01*
X108401703Y-63886772D01*
X108465853Y-63731900D01*
X108558985Y-63592519D01*
X108677519Y-63473985D01*
X108816900Y-63380853D01*
X108971772Y-63316703D01*
X109136184Y-63284000D01*
X109303816Y-63284000D01*
X109468228Y-63316703D01*
X109468228Y-63316703D01*
G37*
G36*
X113278228Y-62761703D02*
G01*
X113433100Y-62825853D01*
X113572481Y-62918985D01*
X113691015Y-63037519D01*
X113784147Y-63176900D01*
X113848297Y-63331772D01*
X113881000Y-63496184D01*
X113881000Y-63663816D01*
X113848297Y-63828228D01*
X113784147Y-63983100D01*
X113691015Y-64122481D01*
X113572481Y-64241015D01*
X113433100Y-64334147D01*
X113278228Y-64398297D01*
X113113816Y-64431000D01*
X112946184Y-64431000D01*
X112781772Y-64398297D01*
X112626900Y-64334147D01*
X112487519Y-64241015D01*
X112368985Y-64122481D01*
X112275853Y-63983100D01*
X112211703Y-63828228D01*
X112179000Y-63663816D01*
X112179000Y-63496184D01*
X112211703Y-63331772D01*
X112275853Y-63176900D01*
X112368985Y-63037519D01*
X112487519Y-62918985D01*
X112626900Y-62825853D01*
X112781772Y-62761703D01*
X112946184Y-62729000D01*
X113113816Y-62729000D01*
X113278228Y-62761703D01*
X113278228Y-62761703D01*
G37*
G36*
X128380443Y-60700519D02*
G01*
X128446627Y-60707037D01*
X128616466Y-60758557D01*
X128772991Y-60842222D01*
X128808729Y-60871552D01*
X128910186Y-60954814D01*
X128983226Y-61043815D01*
X129022778Y-61092009D01*
X129106443Y-61248534D01*
X129157963Y-61418373D01*
X129175359Y-61595000D01*
X129157963Y-61771627D01*
X129106443Y-61941466D01*
X129022778Y-62097991D01*
X128993448Y-62133729D01*
X128910186Y-62235186D01*
X128808729Y-62318448D01*
X128772991Y-62347778D01*
X128616466Y-62431443D01*
X128446627Y-62482963D01*
X128380443Y-62489481D01*
X128314260Y-62496000D01*
X128225740Y-62496000D01*
X128159557Y-62489481D01*
X128093373Y-62482963D01*
X127923534Y-62431443D01*
X127767009Y-62347778D01*
X127731271Y-62318448D01*
X127629814Y-62235186D01*
X127546552Y-62133729D01*
X127517222Y-62097991D01*
X127433557Y-61941466D01*
X127382037Y-61771627D01*
X127364641Y-61595000D01*
X127382037Y-61418373D01*
X127433557Y-61248534D01*
X127517222Y-61092009D01*
X127556774Y-61043815D01*
X127629814Y-60954814D01*
X127731271Y-60871552D01*
X127767009Y-60842222D01*
X127923534Y-60758557D01*
X128093373Y-60707037D01*
X128159557Y-60700519D01*
X128225740Y-60694000D01*
X128314260Y-60694000D01*
X128380443Y-60700519D01*
X128380443Y-60700519D01*
G37*
G36*
X106928228Y-60141703D02*
G01*
X107083100Y-60205853D01*
X107222481Y-60298985D01*
X107341015Y-60417519D01*
X107434147Y-60556900D01*
X107498297Y-60711772D01*
X107531000Y-60876184D01*
X107531000Y-61043816D01*
X107498297Y-61208228D01*
X107434147Y-61363100D01*
X107341015Y-61502481D01*
X107222481Y-61621015D01*
X107083100Y-61714147D01*
X106928228Y-61778297D01*
X106763816Y-61811000D01*
X106596184Y-61811000D01*
X106431772Y-61778297D01*
X106276900Y-61714147D01*
X106137519Y-61621015D01*
X106018985Y-61502481D01*
X105925853Y-61363100D01*
X105861703Y-61208228D01*
X105829000Y-61043816D01*
X105829000Y-60876184D01*
X105861703Y-60711772D01*
X105925853Y-60556900D01*
X106018985Y-60417519D01*
X106137519Y-60298985D01*
X106276900Y-60205853D01*
X106431772Y-60141703D01*
X106596184Y-60109000D01*
X106763816Y-60109000D01*
X106928228Y-60141703D01*
X106928228Y-60141703D01*
G37*
G36*
X101928228Y-60141703D02*
G01*
X102083100Y-60205853D01*
X102222481Y-60298985D01*
X102341015Y-60417519D01*
X102434147Y-60556900D01*
X102498297Y-60711772D01*
X102531000Y-60876184D01*
X102531000Y-61043816D01*
X102498297Y-61208228D01*
X102434147Y-61363100D01*
X102341015Y-61502481D01*
X102222481Y-61621015D01*
X102083100Y-61714147D01*
X101928228Y-61778297D01*
X101763816Y-61811000D01*
X101596184Y-61811000D01*
X101431772Y-61778297D01*
X101276900Y-61714147D01*
X101137519Y-61621015D01*
X101018985Y-61502481D01*
X100925853Y-61363100D01*
X100861703Y-61208228D01*
X100829000Y-61043816D01*
X100829000Y-60876184D01*
X100861703Y-60711772D01*
X100925853Y-60556900D01*
X101018985Y-60417519D01*
X101137519Y-60298985D01*
X101276900Y-60205853D01*
X101431772Y-60141703D01*
X101596184Y-60109000D01*
X101763816Y-60109000D01*
X101928228Y-60141703D01*
X101928228Y-60141703D01*
G37*
G36*
X120181823Y-60121313D02*
G01*
X120342242Y-60169976D01*
X120409361Y-60205852D01*
X120490078Y-60248996D01*
X120619659Y-60355341D01*
X120726004Y-60484922D01*
X120726005Y-60484924D01*
X120805024Y-60632758D01*
X120853687Y-60793177D01*
X120870117Y-60960000D01*
X120853687Y-61126823D01*
X120805024Y-61287242D01*
X120764477Y-61363100D01*
X120726004Y-61435078D01*
X120619659Y-61564659D01*
X120490078Y-61671004D01*
X120490076Y-61671005D01*
X120342242Y-61750024D01*
X120181823Y-61798687D01*
X120056804Y-61811000D01*
X119973196Y-61811000D01*
X119848177Y-61798687D01*
X119687758Y-61750024D01*
X119539924Y-61671005D01*
X119539922Y-61671004D01*
X119410341Y-61564659D01*
X119303996Y-61435078D01*
X119265523Y-61363100D01*
X119224976Y-61287242D01*
X119176313Y-61126823D01*
X119159883Y-60960000D01*
X119176313Y-60793177D01*
X119224976Y-60632758D01*
X119303995Y-60484924D01*
X119303996Y-60484922D01*
X119410341Y-60355341D01*
X119539922Y-60248996D01*
X119620639Y-60205852D01*
X119687758Y-60169976D01*
X119848177Y-60121313D01*
X119973196Y-60109000D01*
X120056804Y-60109000D01*
X120181823Y-60121313D01*
X120181823Y-60121313D01*
G37*
G36*
X116453228Y-60141703D02*
G01*
X116608100Y-60205853D01*
X116747481Y-60298985D01*
X116866015Y-60417519D01*
X116959147Y-60556900D01*
X117023297Y-60711772D01*
X117056000Y-60876184D01*
X117056000Y-61043816D01*
X117023297Y-61208228D01*
X116959147Y-61363100D01*
X116866015Y-61502481D01*
X116747481Y-61621015D01*
X116608100Y-61714147D01*
X116453228Y-61778297D01*
X116288816Y-61811000D01*
X116121184Y-61811000D01*
X115956772Y-61778297D01*
X115801900Y-61714147D01*
X115662519Y-61621015D01*
X115543985Y-61502481D01*
X115450853Y-61363100D01*
X115386703Y-61208228D01*
X115354000Y-61043816D01*
X115354000Y-60876184D01*
X115386703Y-60711772D01*
X115450853Y-60556900D01*
X115543985Y-60417519D01*
X115662519Y-60298985D01*
X115801900Y-60205853D01*
X115956772Y-60141703D01*
X116121184Y-60109000D01*
X116288816Y-60109000D01*
X116453228Y-60141703D01*
X116453228Y-60141703D01*
G37*
G36*
X124073228Y-60141703D02*
G01*
X124228100Y-60205853D01*
X124367481Y-60298985D01*
X124486015Y-60417519D01*
X124579147Y-60556900D01*
X124643297Y-60711772D01*
X124676000Y-60876184D01*
X124676000Y-61043816D01*
X124643297Y-61208228D01*
X124579147Y-61363100D01*
X124486015Y-61502481D01*
X124367481Y-61621015D01*
X124228100Y-61714147D01*
X124073228Y-61778297D01*
X123908816Y-61811000D01*
X123741184Y-61811000D01*
X123576772Y-61778297D01*
X123421900Y-61714147D01*
X123282519Y-61621015D01*
X123163985Y-61502481D01*
X123070853Y-61363100D01*
X123006703Y-61208228D01*
X122974000Y-61043816D01*
X122974000Y-60876184D01*
X123006703Y-60711772D01*
X123070853Y-60556900D01*
X123163985Y-60417519D01*
X123282519Y-60298985D01*
X123421900Y-60205853D01*
X123576772Y-60141703D01*
X123741184Y-60109000D01*
X123908816Y-60109000D01*
X124073228Y-60141703D01*
X124073228Y-60141703D01*
G37*
M02*
